Skript
…
Um die grundlegenden dplyr-Verben zu erkunden, werden wir
nycflights13::flights verwenden. Dieser Datensatz enthält alle 336.776
Flüge, die 2013 von New York City abgeflogen sind. Die Daten stammen vom
US Bureau of Transportation Statistics und sind in ?flights
dokumentiert. Dieser Datensatz wir häufig für die Einführung in dplyr
verwendet. Bei Problemen findet man somit fast immer eine Lösung.

flights

## # A tibble: 336,776 × 19
##     year month   day dep_time sched_dep_time dep_delay arr_time sched_arr_time
##    <int> <int> <int>    <int>          <int>     <dbl>    <int>          <int>
##  1  2013     1     1      517            515         2      830            819
##  2  2013     1     1      533            529         4      850            830
##  3  2013     1     1      542            540         2      923            850
##  4  2013     1     1      544            545        -1     1004           1022
##  5  2013     1     1      554            600        -6      812            837
##  6  2013     1     1      554            558        -4      740            728
##  7  2013     1     1      555            600        -5      913            854
##  8  2013     1     1      557            600        -3      709            723
##  9  2013     1     1      557            600        -3      838            846
## 10  2013     1     1      558            600        -2      753            745
## # ℹ 336,766 more rows
## # ℹ 11 more variables: arr_delay <dbl>, carrier <chr>, flight <int>,
## #   tailnum <chr>, origin <chr>, dest <chr>, air_time <dbl>, distance <dbl>,
## #   hour <dbl>, minute <dbl>, time_hour <dttm>
…
flights %>% 
  filter(dest == "IAH")  %>%  
  group_by(year, month, day) %>% 
  summarize(
    arr_delay = mean(arr_delay, na.rm = TRUE)
  )

## # A tibble: 365 × 4
## # Groups:   year, month [12]
##     year month   day arr_delay
##    <int> <int> <int>     <dbl>
##  1  2013     1     1     17.8 
##  2  2013     1     2      7   
##  3  2013     1     3     18.3 
##  4  2013     1     4     -3.2 
##  5  2013     1     5     20.2 
##  6  2013     1     6      9.28
##  7  2013     1     7     -7.74
##  8  2013     1     8      7.79
##  9  2013     1     9     18.1 
## 10  2013     1    10      6.68
## # ℹ 355 more rows
…
filter() extrahiert nur die Zeilen aus einem Datensatz,
die bestimmten Bedingungen entsprechen. Diese Bedingungen können
logische Operationen oder Funktionen enthalten, die auf bestimmte
Spalten angewendet werden. Es werden auch mehrere Bedingungen
akzeptiert.

Das erste Argument ist wie immer der dataframe. Das zweite und die
folgenden Argumente sind die Bedingungen, die erfüllt sein müssen. Zum
Beispiel könnten wir alle Flüge finden, die mit mehr als 240 Minuten
(vier Stunden) Verspätung abgeflogen sind:

flights %>% 
  filter(dep_delay > 240)

## # A tibble: 1,524 × 19
##     year month   day dep_time sched_dep_time dep_delay arr_time sched_arr_time
##    <int> <int> <int>    <int>          <int>     <dbl>    <int>          <int>
##  1  2013     1     1      848           1835       853     1001           1950
##  2  2013     1     1     1815           1325       290     2120           1542
##  3  2013     1     1     1842           1422       260     1958           1535
##  4  2013     1     1     2115           1700       255     2330           1920
##  5  2013     1     1     2205           1720       285       46           2040
##  6  2013     1     1     2343           1724       379      314           1938
##  7  2013     1     2     1332            904       268     1616           1128
##  8  2013     1     2     1412            838       334     1710           1147
##  9  2013     1     2     1607           1030       337     2003           1355
## 10  2013     1     2     2131           1512       379     2340           1741
## # ℹ 1,514 more rows
## # ℹ 11 more variables: arr_delay <dbl>, carrier <chr>, flight <int>,
## #   tailnum <chr>, origin <chr>, dest <chr>, air_time <dbl>, distance <dbl>,
## #   hour <dbl>, minute <dbl>, time_hour <dttm>
…
|| (Kurzschluss-ODER): Dieser Operator funktioniert
analog und gibt nur dann TRUE zurück, wenn mindestens eine der beiden
Bedingungen TRUE ist und die linke Bedingung nicht TRUE auswertet.

Aber zurück zu unserem Datensatz. Wenn nach Tag und
Monat gefiltert werden soll, müssen nur die beiden Bedingungen mit einem
, oder & verknüpft werden. Gleiches gilt
für den ODER-Operator.

# Flüge am 1. Januar
flights %>% 
  filter(month == 1 & day == 1)

## # A tibble: 842 × 19
##     year month   day dep_time sched_dep_time dep_delay arr_time sched_arr_time
##    <int> <int> <int>    <int>          <int>     <dbl>    <int>          <int>
##  1  2013     1     1      517            515         2      830            819
##  2  2013     1     1      533            529         4      850            830
##  3  2013     1     1      542            540         2      923            850
##  4  2013     1     1      544            545        -1     1004           1022
##  5  2013     1     1      554            600        -6      812            837
##  6  2013     1     1      554            558        -4      740            728
##  7  2013     1     1      555            600        -5      913            854
##  8  2013     1     1      557            600        -3      709            723
##  9  2013     1     1      557            600        -3      838            846
## 10  2013     1     1      558            600        -2      753            745
## # ℹ 832 more rows
## # ℹ 11 more variables: arr_delay <dbl>, carrier <chr>, flight <int>,
## #   tailnum <chr>, origin <chr>, dest <chr>, air_time <dbl>, distance <dbl>,
## #   hour <dbl>, minute <dbl>, time_hour <dttm>

# oder
# Flüge am 1. Januar
flights %>% 
  filter(month == 1, day == 1)

## # A tibble: 842 × 19
##     year month   day dep_time sched_dep_time dep_delay arr_time sched_arr_time
##    <int> <int> <int>    <int>          <int>     <dbl>    <int>          <int>
##  1  2013     1     1      517            515         2      830            819
##  2  2013     1     1      533            529         4      850            830
##  3  2013     1     1      542            540         2      923            850
##  4  2013     1     1      544            545        -1     1004           1022
##  5  2013     1     1      554            600        -6      812            837
##  6  2013     1     1      554            558        -4      740            728
##  7  2013     1     1      555            600        -5      913            854
##  8  2013     1     1      557            600        -3      709            723
##  9  2013     1     1      557            600        -3      838            846
## 10  2013     1     1      558            600        -2      753            745
## # ℹ 832 more rows
## # ℹ 11 more variables: arr_delay <dbl>, carrier <chr>, flight <int>,
## #   tailnum <chr>, origin <chr>, dest <chr>, air_time <dbl>, distance <dbl>,
## #   hour <dbl>, minute <dbl>, time_hour <dttm>

# Flüge im Januar oder Febraur
flights %>% 
  filter(month == 1 | month == 2)

## # A tibble: 51,955 × 19
##     year month   day dep_time sched_dep_time dep_delay arr_time sched_arr_time
##    <int> <int> <int>    <int>          <int>     <dbl>    <int>          <int>
##  1  2013     1     1      517            515         2      830            819
##  2  2013     1     1      533            529         4      850            830
##  3  2013     1     1      542            540         2      923            850
##  4  2013     1     1      544            545        -1     1004           1022
##  5  2013     1     1      554            600        -6      812            837
##  6  2013     1     1      554            558        -4      740            728
##  7  2013     1     1      555            600        -5      913            854
##  8  2013     1     1      557            600        -3      709            723
##  9  2013     1     1      557            600        -3      838            846
## 10  2013     1     1      558            600        -2      753            745
## # ℹ 51,945 more rows
## # ℹ 11 more variables: arr_delay <dbl>, carrier <chr>, flight <int>,
## #   tailnum <chr>, origin <chr>, dest <chr>, air_time <dbl>, distance <dbl>,
## #   hour <dbl>, minute <dbl>, time_hour <dttm>

Es gibt eine nützliche Abkürzung, wenn du |
und== kombinieren willst: %in%. Damit bleiben
Zeilen erhalten, in denen die Variable einem der Werte auf der rechten
Seite entspricht:

# Ein kürzerer Weg zur Auswahl von Flügen, die im Januar oder Februar abfliegen
flights %>% 
  filter(month %in% c(1, 2))

## # A tibble: 51,955 × 19
##     year month   day dep_time sched_dep_time dep_delay arr_time sched_arr_time
##    <int> <int> <int>    <int>          <int>     <dbl>    <int>          <int>
##  1  2013     1     1      517            515         2      830            819
##  2  2013     1     1      533            529         4      850            830
##  3  2013     1     1      542            540         2      923            850
##  4  2013     1     1      544            545        -1     1004           1022
##  5  2013     1     1      554            600        -6      812            837
##  6  2013     1     1      554            558        -4      740            728
##  7  2013     1     1      555            600        -5      913            854
##  8  2013     1     1      557            600        -3      709            723
##  9  2013     1     1      557            600        -3      838            846
## 10  2013     1     1      558            600        -2      753            745
## # ℹ 51,945 more rows
## # ℹ 11 more variables: arr_delay <dbl>, carrier <chr>, flight <int>,
## #   tailnum <chr>, origin <chr>, dest <chr>, air_time <dbl>, distance <dbl>,
## #   hour <dbl>, minute <dbl>, time_hour <dttm>
…
Mit arrange() können diue Daten in einem dataframe nach
einer oder mehreren Spalten sortiert werden. Es benötigt einen dataframe
und eine Reihe von Spaltennamen (oder kompliziertere Ausdrücke), nach
denen geordnet werden soll. Wenn Sie mehr als einen Spaltennamen
angeben, wird jede zusätzliche Spalte verwendet, um Übereinstimmungen in
den Werten der vorangegangenen Spalten aufzudröseln. Der folgende Code
sortiert zum Beispiel nach der Abflugzeit, die auf vier Spalten verteilt
ist. Wir erhalten zuerst die frühesten Jahre, dann innerhalb eines
Jahres die frühesten Monate, usw.

flights %>% 
  arrange(year, month, day, dep_time)

## # A tibble: 336,776 × 19
##     year month   day dep_time sched_dep_time dep_delay arr_time sched_arr_time
##    <int> <int> <int>    <int>          <int>     <dbl>    <int>          <int>
##  1  2013     1     1      517            515         2      830            819
##  2  2013     1     1      533            529         4      850            830
##  3  2013     1     1      542            540         2      923            850
##  4  2013     1     1      544            545        -1     1004           1022
##  5  2013     1     1      554            600        -6      812            837
##  6  2013     1     1      554            558        -4      740            728
##  7  2013     1     1      555            600        -5      913            854
##  8  2013     1     1      557            600        -3      709            723
##  9  2013     1     1      557            600        -3      838            846
## 10  2013     1     1      558            600        -2      753            745
## # ℹ 336,766 more rows
## # ℹ 11 more variables: arr_delay <dbl>, carrier <chr>, flight <int>,
## #   tailnum <chr>, origin <chr>, dest <chr>, air_time <dbl>, distance <dbl>,
## #   hour <dbl>, minute <dbl>, time_hour <dttm>

Du kannsz desc() für eine Spalte innerhalb von
arrange() verwenden, um den dataframe auf der Grundlage
dieser Spalte in absteigender Reihenfolge (von groß nach klein) neu zu
ordnen. Zum Beispiel ordnet dieser Code die Flüge von der größten bis
zur geringsten Verspätung:

flights %>% 
   arrange(desc(dep_delay))

## # A tibble: 336,776 × 19
##     year month   day dep_time sched_dep_time dep_delay arr_time sched_arr_time
##    <int> <int> <int>    <int>          <int>     <dbl>    <int>          <int>
##  1  2013     1     9      641            900      1301     1242           1530
##  2  2013     6    15     1432           1935      1137     1607           2120
##  3  2013     1    10     1121           1635      1126     1239           1810
##  4  2013     9    20     1139           1845      1014     1457           2210
##  5  2013     7    22      845           1600      1005     1044           1815
##  6  2013     4    10     1100           1900       960     1342           2211
##  7  2013     3    17     2321            810       911      135           1020
##  8  2013     6    27      959           1900       899     1236           2226
##  9  2013     7    22     2257            759       898      121           1026
## 10  2013    12     5      756           1700       896     1058           2020
## # ℹ 336,766 more rows
## # ℹ 11 more variables: arr_delay <dbl>, carrier <chr>, flight <int>,
## #   tailnum <chr>, origin <chr>, dest <chr>, air_time <dbl>, distance <dbl>,
## #   hour <dbl>, minute <dbl>, time_hour <dttm>
…
distinct()

distinct() findet alle eindeutigen Zeilen in einem
Datensatz. Technisch gesehen werden also in erster Linie die Zeilen
bearbeitet. In den meisten Fällen wirst du jedoch die eindeutige
Kombination einiger Variablen benötigen, weshalb optional auch
Spaltennamen angegeben werden können:

# Doppelte Zeilen entfernen, falls vorhanden
flights  %>%  
  distinct()

## # A tibble: 336,776 × 19
##     year month   day dep_time sched_dep_time dep_delay arr_time sched_arr_time
##    <int> <int> <int>    <int>          <int>     <dbl>    <int>          <int>
##  1  2013     1     1      517            515         2      830            819
##  2  2013     1     1      533            529         4      850            830
##  3  2013     1     1      542            540         2      923            850
##  4  2013     1     1      544            545        -1     1004           1022
##  5  2013     1     1      554            600        -6      812            837
##  6  2013     1     1      554            558        -4      740            728
##  7  2013     1     1      555            600        -5      913            854
##  8  2013     1     1      557            600        -3      709            723
##  9  2013     1     1      557            600        -3      838            846
## 10  2013     1     1      558            600        -2      753            745
## # ℹ 336,766 more rows
## # ℹ 11 more variables: arr_delay <dbl>, carrier <chr>, flight <int>,
## #   tailnum <chr>, origin <chr>, dest <chr>, air_time <dbl>, distance <dbl>,
## #   hour <dbl>, minute <dbl>, time_hour <dttm>

# Alle eindeutigen Herkunfts- und Zielpaare finden
flights  %>% 
  distinct(origin, dest)

## # A tibble: 224 × 2
##    origin dest 
##    <chr>  <chr>
##  1 EWR    IAH  
##  2 LGA    IAH  
##  3 JFK    MIA  
##  4 JFK    BQN  
##  5 LGA    ATL  
##  6 EWR    ORD  
##  7 EWR    FLL  
##  8 LGA    IAD  
##  9 JFK    MCO  
## 10 LGA    ORD  
## # ℹ 214 more rows

Wenn du beim Filtern nach eindeutigen Zeilen auch andere Spalten
beibehalten willst, kannst du alternativ die Option
.keep_all = TRUE verwenden.

flights  %>% 
  distinct(origin, dest, .keep_all = TRUE)

## # A tibble: 224 × 19
##     year month   day dep_time sched_dep_time dep_delay arr_time sched_arr_time
##    <int> <int> <int>    <int>          <int>     <dbl>    <int>          <int>
##  1  2013     1     1      517            515         2      830            819
##  2  2013     1     1      533            529         4      850            830
##  3  2013     1     1      542            540         2      923            850
##  4  2013     1     1      544            545        -1     1004           1022
##  5  2013     1     1      554            600        -6      812            837
##  6  2013     1     1      554            558        -4      740            728
##  7  2013     1     1      555            600        -5      913            854
##  8  2013     1     1      557            600        -3      709            723
##  9  2013     1     1      557            600        -3      838            846
## 10  2013     1     1      558            600        -2      753            745
## # ℹ 214 more rows
## # ℹ 11 more variables: arr_delay <dbl>, carrier <chr>, flight <int>,
## #   tailnum <chr>, origin <chr>, dest <chr>, air_time <dbl>, distance <dbl>,
## #   hour <dbl>, minute <dbl>, time_hour <dttm>

Es ist kein Zufall, dass alle diese eindeutigen Flüge am 1. Januar
stattfinden: distinct() findet das erste Vorkommen einer
eindeutigen Zeile im Datensatz und verwirft den Rest.

Wenn du stattdessen die Anzahl der Vorkommen ermitteln willst, ist es
besser, distinct() gegen count()
auszutauschen, und mit dem Argument sort = TRUE kannst du
sie in absteigender Reihenfolge der Anzahl der Vorkommen anordnen.

flights  %>%
  count(origin, dest, sort = TRUE)

## # A tibble: 224 × 3
##    origin dest      n
##    <chr>  <chr> <int>
##  1 JFK    LAX   11262
##  2 LGA    ATL   10263
##  3 LGA    ORD    8857
##  4 JFK    SFO    8204
##  5 LGA    CLT    6168
##  6 EWR    ORD    6100
##  7 JFK    BOS    5898
##  8 LGA    MIA    5781
##  9 JFK    MCO    5464
## 10 EWR    BOS    5327
## # ℹ 214 more rows
…
flights %>%  
  mutate(
    gain = dep_delay - arr_delay,
    speed = distance / air_time * 60
  )

## # A tibble: 336,776 × 21
##     year month   day dep_time sched_dep_time dep_delay arr_time sched_arr_time
##    <int> <int> <int>    <int>          <int>     <dbl>    <int>          <int>
##  1  2013     1     1      517            515         2      830            819
##  2  2013     1     1      533            529         4      850            830
##  3  2013     1     1      542            540         2      923            850
##  4  2013     1     1      544            545        -1     1004           1022
##  5  2013     1     1      554            600        -6      812            837
##  6  2013     1     1      554            558        -4      740            728
##  7  2013     1     1      555            600        -5      913            854
##  8  2013     1     1      557            600        -3      709            723
##  9  2013     1     1      557            600        -3      838            846
## 10  2013     1     1      558            600        -2      753            745
## # ℹ 336,766 more rows
## # ℹ 13 more variables: arr_delay <dbl>, carrier <chr>, flight <int>,
## #   tailnum <chr>, origin <chr>, dest <chr>, air_time <dbl>, distance <dbl>,
## #   hour <dbl>, minute <dbl>, time_hour <dttm>, gain <dbl>, speed <dbl>
…
