Lösungen
…
Wurden von United, American oder Delta durchgeführt

Sind im Sommer abgeflogen (Juli, August und September)

Sind mehr als zwei Stunden zu spät angekommen, sind aber nicht zu
spät abgeflogen

Waren um mindestens eine Stunde verspätet, haben aber während des
Fluges mehr als 30 Minuten aufgeholt

flights %>%
  filter(arr_delay >= 120)

## # A tibble: 10,200 × 19
##     year month   day dep_time sched_dep_time dep_delay arr_time sched_arr_time
##    <int> <int> <int>    <int>          <int>     <dbl>    <int>          <int>
##  1  2013     1     1      811            630       101     1047            830
##  2  2013     1     1      848           1835       853     1001           1950
##  3  2013     1     1      957            733       144     1056            853
##  4  2013     1     1     1114            900       134     1447           1222
##  5  2013     1     1     1505           1310       115     1638           1431
##  6  2013     1     1     1525           1340       105     1831           1626
##  7  2013     1     1     1549           1445        64     1912           1656
##  8  2013     1     1     1558           1359       119     1718           1515
##  9  2013     1     1     1732           1630        62     2028           1825
## 10  2013     1     1     1803           1620       103     2008           1750
## # ℹ 10,190 more rows
## # ℹ 11 more variables: arr_delay <dbl>, carrier <chr>, flight <int>,
## #   tailnum <chr>, origin <chr>, dest <chr>, air_time <dbl>, distance <dbl>,
## #   hour <dbl>, minute <dbl>, time_hour <dttm>

flights %>%
  filter(dest %in% c("IAH", "HOU"))

## # A tibble: 9,313 × 19
##     year month   day dep_time sched_dep_time dep_delay arr_time sched_arr_time
##    <int> <int> <int>    <int>          <int>     <dbl>    <int>          <int>
##  1  2013     1     1      517            515         2      830            819
##  2  2013     1     1      533            529         4      850            830
##  3  2013     1     1      623            627        -4      933            932
##  4  2013     1     1      728            732        -4     1041           1038
##  5  2013     1     1      739            739         0     1104           1038
##  6  2013     1     1      908            908         0     1228           1219
##  7  2013     1     1     1028           1026         2     1350           1339
##  8  2013     1     1     1044           1045        -1     1352           1351
##  9  2013     1     1     1114            900       134     1447           1222
## 10  2013     1     1     1205           1200         5     1503           1505
## # ℹ 9,303 more rows
## # ℹ 11 more variables: arr_delay <dbl>, carrier <chr>, flight <int>,
## #   tailnum <chr>, origin <chr>, dest <chr>, air_time <dbl>, distance <dbl>,
## #   hour <dbl>, minute <dbl>, time_hour <dttm>

flights %>%
  filter(carrier %in% c("UA", "AA", "DL"))

## # A tibble: 139,504 × 19
##     year month   day dep_time sched_dep_time dep_delay arr_time sched_arr_time
##    <int> <int> <int>    <int>          <int>     <dbl>    <int>          <int>
##  1  2013     1     1      517            515         2      830            819
##  2  2013     1     1      533            529         4      850            830
##  3  2013     1     1      542            540         2      923            850
##  4  2013     1     1      554            600        -6      812            837
##  5  2013     1     1      554            558        -4      740            728
##  6  2013     1     1      558            600        -2      753            745
##  7  2013     1     1      558            600        -2      924            917
##  8  2013     1     1      558            600        -2      923            937
##  9  2013     1     1      559            600        -1      941            910
## 10  2013     1     1      559            600        -1      854            902
## # ℹ 139,494 more rows
## # ℹ 11 more variables: arr_delay <dbl>, carrier <chr>, flight <int>,
## #   tailnum <chr>, origin <chr>, dest <chr>, air_time <dbl>, distance <dbl>,
## #   hour <dbl>, minute <dbl>, time_hour <dttm>

flights %>%
  filter(month %in% c(7, 8, 9))

## # A tibble: 86,326 × 19
##     year month   day dep_time sched_dep_time dep_delay arr_time sched_arr_time
##    <int> <int> <int>    <int>          <int>     <dbl>    <int>          <int>
##  1  2013     7     1        1           2029       212      236           2359
##  2  2013     7     1        2           2359         3      344            344
##  3  2013     7     1       29           2245       104      151              1
##  4  2013     7     1       43           2130       193      322             14
##  5  2013     7     1       44           2150       174      300            100
##  6  2013     7     1       46           2051       235      304           2358
##  7  2013     7     1       48           2001       287      308           2305
##  8  2013     7     1       58           2155       183      335             43
##  9  2013     7     1      100           2146       194      327             30
## 10  2013     7     1      100           2245       135      337            135
## # ℹ 86,316 more rows
## # ℹ 11 more variables: arr_delay <dbl>, carrier <chr>, flight <int>,
## #   tailnum <chr>, origin <chr>, dest <chr>, air_time <dbl>, distance <dbl>,
## #   hour <dbl>, minute <dbl>, time_hour <dttm>

flights %>%
  filter(arr_delay > dep_delay & dep_delay <= 0)

## # A tibble: 57,278 × 19
##     year month   day dep_time sched_dep_time dep_delay arr_time sched_arr_time
##    <int> <int> <int>    <int>          <int>     <dbl>    <int>          <int>
##  1  2013     1     1      554            558        -4      740            728
##  2  2013     1     1      555            600        -5      913            854
##  3  2013     1     1      558            600        -2      753            745
##  4  2013     1     1      558            600        -2      924            917
##  5  2013     1     1      559            600        -1      941            910
##  6  2013     1     1      600            600         0      837            825
##  7  2013     1     1      602            605        -3      821            805
##  8  2013     1     1      622            630        -8     1017           1014
##  9  2013     1     1      623            627        -4      933            932
## 10  2013     1     1      624            630        -6      909            840
## # ℹ 57,268 more rows
## # ℹ 11 more variables: arr_delay <dbl>, carrier <chr>, flight <int>,
## #   tailnum <chr>, origin <chr>, dest <chr>, air_time <dbl>, distance <dbl>,
## #   hour <dbl>, minute <dbl>, time_hour <dttm>

flights %>%
  filter(dep_delay >= 60 & (dep_delay - arr_delay) > 30)

## # A tibble: 1,844 × 19
##     year month   day dep_time sched_dep_time dep_delay arr_time sched_arr_time
##    <int> <int> <int>    <int>          <int>     <dbl>    <int>          <int>
##  1  2013     1     1     2205           1720       285       46           2040
##  2  2013     1     1     2326           2130       116      131             18
##  3  2013     1     3     1503           1221       162     1803           1555
##  4  2013     1     3     1839           1700        99     2056           1950
##  5  2013     1     3     1850           1745        65     2148           2120
##  6  2013     1     3     1941           1759       102     2246           2139
##  7  2013     1     3     1950           1845        65     2228           2227
##  8  2013     1     3     2015           1915        60     2135           2111
##  9  2013     1     3     2257           2000       177       45           2224
## 10  2013     1     4     1917           1700       137     2135           1950
## # ℹ 1,834 more rows
## # ℹ 11 more variables: arr_delay <dbl>, carrier <chr>, flight <int>,
## #   tailnum <chr>, origin <chr>, dest <chr>, air_time <dbl>, distance <dbl>,
## #   hour <dbl>, minute <dbl>, time_hour <dttm>

2. Aufgabe

Sortiere die Flüge, um die Flüge mit den längsten Abflugverspätungen
zu finden. Finde die Flüge, die am frühesten am Morgen abgeflogen
sind.

flights %>%
  arrange(desc(dep_delay))

## # A tibble: 336,776 × 19
##     year month   day dep_time sched_dep_time dep_delay arr_time sched_arr_time
##    <int> <int> <int>    <int>          <int>     <dbl>    <int>          <int>
##  1  2013     1     9      641            900      1301     1242           1530
##  2  2013     6    15     1432           1935      1137     1607           2120
##  3  2013     1    10     1121           1635      1126     1239           1810
##  4  2013     9    20     1139           1845      1014     1457           2210
##  5  2013     7    22      845           1600      1005     1044           1815
##  6  2013     4    10     1100           1900       960     1342           2211
##  7  2013     3    17     2321            810       911      135           1020
##  8  2013     6    27      959           1900       899     1236           2226
##  9  2013     7    22     2257            759       898      121           1026
## 10  2013    12     5      756           1700       896     1058           2020
## # ℹ 336,766 more rows
## # ℹ 11 more variables: arr_delay <dbl>, carrier <chr>, flight <int>,
## #   tailnum <chr>, origin <chr>, dest <chr>, air_time <dbl>, distance <dbl>,
## #   hour <dbl>, minute <dbl>, time_hour <dttm>

flights %>%
  arrange(dep_time)

## # A tibble: 336,776 × 19
##     year month   day dep_time sched_dep_time dep_delay arr_time sched_arr_time
##    <int> <int> <int>    <int>          <int>     <dbl>    <int>          <int>
##  1  2013     1    13        1           2249        72      108           2357
##  2  2013     1    31        1           2100       181      124           2225
##  3  2013    11    13        1           2359         2      442            440
##  4  2013    12    16        1           2359         2      447            437
##  5  2013    12    20        1           2359         2      430            440
##  6  2013    12    26        1           2359         2      437            440
##  7  2013    12    30        1           2359         2      441            437
##  8  2013     2    11        1           2100       181      111           2225
##  9  2013     2    24        1           2245        76      121           2354
## 10  2013     3     8        1           2355         6      431            440
## # ℹ 336,766 more rows
## # ℹ 11 more variables: arr_delay <dbl>, carrier <chr>, flight <int>,
## #   tailnum <chr>, origin <chr>, dest <chr>, air_time <dbl>, distance <dbl>,
## #   hour <dbl>, minute <dbl>, time_hour <dttm>

3. Aufgabe

Sortiere die Flüge, um die schnellsten Flüge zu finden. (Tipp:
Versuche eine mathematische Berechnung in deiner Funktion zu
verwenden.)

flights %>%
  arrange(desc(distance / air_time * 60))

## # A tibble: 336,776 × 19
##     year month   day dep_time sched_dep_time dep_delay arr_time sched_arr_time
##    <int> <int> <int>    <int>          <int>     <dbl>    <int>          <int>
##  1  2013     5    25     1709           1700         9     1923           1937
##  2  2013     7     2     1558           1513        45     1745           1719
##  3  2013     5    13     2040           2025        15     2225           2226
##  4  2013     3    23     1914           1910         4     2045           2043
##  5  2013     1    12     1559           1600        -1     1849           1917
##  6  2013    11    17      650            655        -5     1059           1150
##  7  2013     2    21     2355           2358        -3      412            438
##  8  2013    11    17      759            800        -1     1212           1255
##  9  2013    11    16     2003           1925        38       17             36
## 10  2013    11    16     2349           2359       -10      402            440
## # ℹ 336,766 more rows
## # ℹ 11 more variables: arr_delay <dbl>, carrier <chr>, flight <int>,
## #   tailnum <chr>, origin <chr>, dest <chr>, air_time <dbl>, distance <dbl>,
## #   hour <dbl>, minute <dbl>, time_hour <dttm>

4. Aufgabe:

Welche Flüge sind die weiteste Strecke geflogen? Welche haben die
kürzeste Strecke zurückgelegt?

flights %>% 
  arrange(desc(distance))

## # A tibble: 336,776 × 19
##     year month   day dep_time sched_dep_time dep_delay arr_time sched_arr_time
##    <int> <int> <int>    <int>          <int>     <dbl>    <int>          <int>
##  1  2013     1     1      857            900        -3     1516           1530
##  2  2013     1     2      909            900         9     1525           1530
##  3  2013     1     3      914            900        14     1504           1530
##  4  2013     1     4      900            900         0     1516           1530
##  5  2013     1     5      858            900        -2     1519           1530
##  6  2013     1     6     1019            900        79     1558           1530
##  7  2013     1     7     1042            900       102     1620           1530
##  8  2013     1     8      901            900         1     1504           1530
##  9  2013     1     9      641            900      1301     1242           1530
## 10  2013     1    10      859            900        -1     1449           1530
## # ℹ 336,766 more rows
## # ℹ 11 more variables: arr_delay <dbl>, carrier <chr>, flight <int>,
## #   tailnum <chr>, origin <chr>, dest <chr>, air_time <dbl>, distance <dbl>,
## #   hour <dbl>, minute <dbl>, time_hour <dttm>

flights %>% 
  arrange(distance)

## # A tibble: 336,776 × 19
##     year month   day dep_time sched_dep_time dep_delay arr_time sched_arr_time
##    <int> <int> <int>    <int>          <int>     <dbl>    <int>          <int>
##  1  2013     7    27       NA            106        NA       NA            245
##  2  2013     1     3     2127           2129        -2     2222           2224
##  3  2013     1     4     1240           1200        40     1333           1306
##  4  2013     1     4     1829           1615       134     1937           1721
##  5  2013     1     4     2128           2129        -1     2218           2224
##  6  2013     1     5     1155           1200        -5     1241           1306
##  7  2013     1     6     2125           2129        -4     2224           2224
##  8  2013     1     7     2124           2129        -5     2212           2224
##  9  2013     1     8     2127           2130        -3     2304           2225
## 10  2013     1     9     2126           2129        -3     2217           2224
## # ℹ 336,766 more rows
## # ℹ 11 more variables: arr_delay <dbl>, carrier <chr>, flight <int>,
## #   tailnum <chr>, origin <chr>, dest <chr>, air_time <dbl>, distance <dbl>,
## #   hour <dbl>, minute <dbl>, time_hour <dttm>
…
Übung 2

1. Aufgabe

Vergleiche dep_time, sched_dep_time, und dep_delay. Welchen
Zusammenhang erwartest du zwischen diesen drei Zahlen?

flights %>% 
  select(dep_time, sched_dep_time, dep_delay)

## # A tibble: 336,776 × 3
##    dep_time sched_dep_time dep_delay
##       <int>          <int>     <dbl>
##  1      517            515         2
##  2      533            529         4
##  3      542            540         2
##  4      544            545        -1
##  5      554            600        -6
##  6      554            558        -4
##  7      555            600        -5
##  8      557            600        -3
##  9      557            600        -3
## 10      558            600        -2
## # ℹ 336,766 more rows
…
Insgesamt können wir also sagen, dass dep_time und sched_dep_time
direkt mit dep_delay verbunden sind. Wenn ein Flug später als geplant
abfliegt, wird die Abflugzeit (dep_time) später als die geplante
Abflugzeit (sched_dep_time) sein, was zu einer positiven dep_delay
führt.

2. Aufgabe

Überlege dir so viele Möglichkeiten wie möglich, um dep_time,
dep_delay, arr_time und arr_delay aus flights auszuwählen.

select(flights, dep_time, dep_delay, arr_time, arr_delay)

## # A tibble: 336,776 × 4
##    dep_time dep_delay arr_time arr_delay
##       <int>     <dbl>    <int>     <dbl>
##  1      517         2      830        11
##  2      533         4      850        20
##  3      542         2      923        33
##  4      544        -1     1004       -18
##  5      554        -6      812       -25
##  6      554        -4      740        12
##  7      555        -5      913        19
##  8      557        -3      709       -14
##  9      557        -3      838        -8
## 10      558        -2      753         8
## # ℹ 336,766 more rows

select(flights, "dep_time", "dep_delay", "arr_time", "arr_delay")

## # A tibble: 336,776 × 4
##    dep_time dep_delay arr_time arr_delay
##       <int>     <dbl>    <int>     <dbl>
##  1      517         2      830        11
##  2      533         4      850        20
##  3      542         2      923        33
##  4      544        -1     1004       -18
##  5      554        -6      812       -25
##  6      554        -4      740        12
##  7      555        -5      913        19
##  8      557        -3      709       -14
##  9      557        -3      838        -8
## 10      558        -2      753         8
## # ℹ 336,766 more rows

select(flights, 4, 6, 7, 9)

## # A tibble: 336,776 × 4
##    dep_time dep_delay arr_time arr_delay
##       <int>     <dbl>    <int>     <dbl>
##  1      517         2      830        11
##  2      533         4      850        20
##  3      542         2      923        33
##  4      544        -1     1004       -18
##  5      554        -6      812       -25
##  6      554        -4      740        12
##  7      555        -5      913        19
##  8      557        -3      709       -14
##  9      557        -3      838        -8
## 10      558        -2      753         8
## # ℹ 336,766 more rows

select(flights, all_of(c("dep_time", "dep_delay", "arr_time", "arr_delay")))

## # A tibble: 336,776 × 4
##    dep_time dep_delay arr_time arr_delay
##       <int>     <dbl>    <int>     <dbl>
##  1      517         2      830        11
##  2      533         4      850        20
##  3      542         2      923        33
##  4      544        -1     1004       -18
##  5      554        -6      812       -25
##  6      554        -4      740        12
##  7      555        -5      913        19
##  8      557        -3      709       -14
##  9      557        -3      838        -8
## 10      558        -2      753         8
## # ℹ 336,766 more rows

select(flights, any_of(c("dep_time", "dep_delay", "arr_time", "arr_delay")))

## # A tibble: 336,776 × 4
##    dep_time dep_delay arr_time arr_delay
##       <int>     <dbl>    <int>     <dbl>
##  1      517         2      830        11
##  2      533         4      850        20
##  3      542         2      923        33
##  4      544        -1     1004       -18
##  5      554        -6      812       -25
##  6      554        -4      740        12
##  7      555        -5      913        19
##  8      557        -3      709       -14
##  9      557        -3      838        -8
## 10      558        -2      753         8
## # ℹ 336,766 more rows

variables <- c("dep_time", "dep_delay", "arr_time", "arr_delay")
select(flights, all_of(variables))

## # A tibble: 336,776 × 4
##    dep_time dep_delay arr_time arr_delay
##       <int>     <dbl>    <int>     <dbl>
##  1      517         2      830        11
##  2      533         4      850        20
##  3      542         2      923        33
##  4      544        -1     1004       -18
##  5      554        -6      812       -25
##  6      554        -4      740        12
##  7      555        -5      913        19
##  8      557        -3      709       -14
##  9      557        -3      838        -8
## 10      558        -2      753         8
## # ℹ 336,766 more rows
…
